<svg width="12" height="16" viewBox="0 0 12 16" fill="none" xmlns="http://www.w3.org/2000/svg">
<path fill-rule="evenodd" clip-rule="evenodd" d="M1.33869e-07 15.5V2C1.33869e-07 1.46957 0.210714 0.960859 0.585786 0.585786C0.960859 0.210714 1.46957 0 2 0L10 0C10.5304 0 11.0391 0.210714 11.4142 0.585786C11.7893 0.960859 12 1.46957 12 2V15.5C12.0001 15.5868 11.9775 15.6722 11.9346 15.7476C11.8916 15.8231 11.8298 15.8861 11.7551 15.9304C11.6804 15.9747 11.5955 15.9988 11.5087 16.0003C11.4219 16.0018 11.3362 15.9807 11.26 15.939L6 13.069L0.74 15.939C0.66383 15.9807 0.578119 16.0018 0.491305 16.0003C0.404491 15.9988 0.319567 15.9747 0.244892 15.9304C0.170217 15.8861 0.108365 15.8231 0.0654246 15.7476C0.0224845 15.6722 -6.33938e-05 15.5868 1.33869e-07 15.5ZM6.5 4.5C6.5 4.36739 6.44732 4.24021 6.35355 4.14645C6.25979 4.05268 6.13261 4 6 4C5.86739 4 5.74021 4.05268 5.64645 4.14645C5.55268 4.24021 5.5 4.36739 5.5 4.5V6H4C3.86739 6 3.74022 6.05268 3.64645 6.14645C3.55268 6.24021 3.5 6.36739 3.5 6.5C3.5 6.63261 3.55268 6.75979 3.64645 6.85355C3.74022 6.94732 3.86739 7 4 7H5.5V8.5C5.5 8.63261 5.55268 8.75979 5.64645 8.85355C5.74021 8.94732 5.86739 9 6 9C6.13261 9 6.25979 8.94732 6.35355 8.85355C6.44732 8.75979 6.5 8.63261 6.5 8.5V7H8C8.13261 7 8.25979 6.94732 8.35355 6.85355C8.44732 6.75979 8.5 6.63261 8.5 6.5C8.5 6.36739 8.44732 6.24021 8.35355 6.14645C8.25979 6.05268 8.13261 6 8 6H6.5V4.5Z" fill="#166DC4"/>
</svg>
