<svg width="32" height="32" viewBox="0 0 32 32" fill="none" xmlns="http://www.w3.org/2000/svg">
<circle cx="16" cy="16" r="16" fill="white"/>
<path fill-rule="evenodd" clip-rule="evenodd" d="M11.0349 16.8889L16.6286 22.4825L15.3715 23.7396L7.63184 16L15.3715 8.26031L16.6286 9.51739L11.0349 15.1111H24V16.8889H11.0349Z" fill="black"/>
</svg>
